samples/Verilog/sha_256_tb.vcd
$date
	Mon Feb  5 11:04:14 2018
$end
$version
	Icarus Verilog
$end
$timescale
	10ps
$end
$scope module sha_256_tb $end
$var wire 256 ! hashed [255:0] $end
$var wire 1 " done $end
$var reg 1 # clk $end
$var reg 256 $ message [255:0] $end
$var reg 1 % rst $end
$scope function padded_size $end
$upscope $end
$scope module uut $end
$var wire 1 # clk $end
$var wire 256 & message [255:0] $end
$var wire 1 % rst $end
$var wire 512 ' padded [511:0] $end
$var wire 256 ( hashed [255:0] $end
$var wire 1 " done $end
$scope module loop $end
$var wire 1 # clk $end
$var wire 1 % rst $end
$var wire 512 ) padded [511:0] $end
$var wire 256 * hashed [255:0] $end
$var reg 32 + a [31:0] $end
$var reg 32 , b [31:0] $end
$var reg 32 - c [31:0] $end
$var reg 32 . ch_efg [31:0] $end
$var reg 32 / d [31:0] $end
$var reg 1 " done $end
$var reg 32 0 e [31:0] $end
$var reg 32 1 f [31:0] $end
$var reg 32 2 g [31:0] $end
$var reg 32 3 h [31:0] $end
$var reg 32 4 h1 [31:0] $end
$var reg 32 5 h2 [31:0] $end
$var reg 32 6 h3 [31:0] $end
$var reg 32 7 h4 [31:0] $end
$var reg 32 8 h5 [31:0] $end
$var reg 32 9 h6 [31:0] $end
$var reg 32 : h7 [31:0] $end
$var reg 32 ; h8 [31:0] $end
$var reg 7 < i [6:0] $end
$var reg 256 = initial_hashes [255:0] $end
$var reg 7 > j [6:0] $end
$var reg 2048 ? k [2047:0] $end
$var reg 32 @ kj [31:0] $end
$var reg 32 A maj_abc [31:0] $end
$var reg 32 B sum0_a [31:0] $end
$var reg 32 C sum1_e [31:0] $end
$var reg 32 D t1 [31:0] $end
$var reg 32 E t2 [31:0] $end
$var reg 32 F wj [31:0] $end
$scope function K $end
$var reg 32 G K [31:0] $end
$var reg 7 H x [6:0] $end
$upscope $end
$scope function W $end
$upscope $end
$scope function ch $end
$var reg 32 I ch [31:0] $end
$var reg 32 J x [31:0] $end
$var reg 32 K y [31:0] $end
$var reg 32 L z [31:0] $end
$upscope $end
$scope function maj $end
$var reg 32 M maj [31:0] $end
$var reg 32 N x [31:0] $end
$var reg 32 O y [31:0] $end
$var reg 32 P z [31:0] $end
$upscope $end
$scope function rho0 $end
$upscope $end
$scope function rho1 $end
$upscope $end
$scope function sum0 $end
$var reg 32 Q sum0 [31:0] $end
$var reg 32 R x [31:0] $end
$upscope $end
$scope function sum1 $end
$var reg 32 S sum1 [31:0] $end
$var reg 32 T x [31:0] $end
$upscope $end
$upscope $end
$scope module padder $end
$var wire 256 U message [255:0] $end
$var wire 512 V padded [511:0] $end
$upscope $end
$upscope $end
$upscope $end
$enddefinitions $end
#0
$dumpvars
b10101101010000101000110001000110111011100101111011001101110110001100011010111000110001101110000110001001010100001011101110101000110000110010100001101100000101010100010000001111000111001111101101111100111100101001101111111000111111001000111001101001110011000000000000000000000000000000000000000000000000000000000000000000000000000000000000000000000000000000000000000000000000000000000000000000000000000000000000000000000000000000000000000000000000000000000000000000000000000000000000000000000000000000100000000 V
b1010110101000010100011000100011011101110010111101100110111011000110001101011100011000110111000011000100101010000101110111010100011000011001010000110110000010101010001000000111100011100111110110111110011110010100110111111100011111100100011100110100111001 U
bx T
b100010001000 S
bx R
b100010001000 Q
bx P
bx O
bx N
b100010001000 M
bx L
bx K
bx J
b100010001000 I
b0x H
bx G
b11101110111 F
bx E
bx D
b100010001000 C
b100010001000 B
b100010001000 A
bx @
b1000010100010100010111110011000011100010011011101000100100100011011010111000000111110111100111111101001101101011101101110100101001110010101011011000010010110110101100111110001000100011111000110010010001111111000001010100100101010110001110001011110110101011101100000000111101010101001100000010010100000110101101100000001001001000011000110000101101111100101010100001100011111011100001101110010101111100101110101110100100000001101111010110001111111101001101111011100000001101010011111000001100110111111000101110100111001001001101101101001110000011110111110111110010001111000011000001111110000011001110111000110001001000000110010100001110011000010110111101001001011000110111101001010011101001000010010101010010111001011000010101001110111000111011011111001100010001101101010011000001111100101000101010010101010000011000111000110011011011011000000000011001001111100100010111111010110010111111111000111110001101110000000001011111100111101010110100111100100010100011100000110110010100110001101010001000101000010100100101001011001110010011110110111000010101000010100101110000110110010000100111000010011010010110001101101111111000101001100111000000011010001001101100101000010100111001101010100011101100110101000001010101110111000000111000010110010010010111010010010011100100010110010000101101000101011111111101000101000011010100000011010011001100100101111000010010010111000101101110000110001110110110001010001101000111101000110010010111010000001100111010110100110010000011000100100111101000000111000110101100001010001000001101010101000000111000000011001101001001100000100010110000111100011011101101100000010000010011101001000011101110100110000110100101100001011110010110101001110010001110000001100101100110100111011011000101010100100101001011011100111001100101001001111011010000010111001101111111100110111010010001111100000101110111001111000101001010110001101101111100001001100100001111000000101001000110011000111000000100000100010010000101111101111111111111010101001000101000001101100111010111011111011111001101000111111011111000110011100010111100011110010 ?
b0x >
b110101000001001111001100110011110111011011001111010111010000101001111000110111011110011011100101010010101001111111101010011101001010001000011100101001001111111100110110000010101101000100011000001111110000011110110011010101101011011111000001100110100011001 =
b0 <
b1011011111000001100110100011001 ;
b11111100000111101100110101011 :
b10011011000001010110100010001100 9
b1010001000011100101001001111111 8
b10100101010011111111010100111010 7
b111100011011101111001101110010 6
b10111011011001111010111010000101 5
b1101010000010011110011001100111 4
bx 3
bx 2
bx 1
bx 0
bx /
b100010001000 .
bx -
bx ,
bx +
b110101000001001111001100110011110111011011001111010111010000101001111000110111011110011011100101010010101001111111101010011101001010001000011100101001001111111100110110000010101101000100011000001111110000011110110011010101101011011111000001100110100011001 *
b10101101010000101000110001000110111011100101111011001101110110001100011010111000110001101110000110001001010100001011101110101000110000110010100001101100000101010100010000001111000111001111101101111100111100101001101111111000111111001000111001101001110011000000000000000000000000000000000000000000000000000000000000000000000000000000000000000000000000000000000000000000000000000000000000000000000000000000000000000000000000000000000000000000000000000000000000000000000000000000000000000000000000000000100000000 )
b110101000001001111001100110011110111011011001111010111010000101001111000110111011110011011100101010010101001111111101010011101001010001000011100101001001111111100110110000010101101000100011000001111110000011110110011010101101011011111000001100110100011001 (
b10101101010000101000110001000110111011100101111011001101110110001100011010111000110001101110000110001001010100001011101110101000110000110010100001101100000101010100010000001111000111001111101101111100111100101001101111111000111111001000111001101001110011000000000000000000000000000000000000000000000000000000000000000000000000000000000000000000000000000000000000000000000000000000000000000000000000000000000000000000000000000000000000000000000000000000000000000000000000000000000000000000000000000000100000000 '
b1010110101000010100011000100011011101110010111101100110111011000110001101011100011000110111000011000100101010000101110111010100011000011001010000110110000010101010001000000111100011100111110110111110011110010100110111111100011111100100011100110100111001 &
1%
b1010110101000010100011000100011011101110010111101100110111011000110001101011100011000110111000011000100101010000101110111010100011000011001010000110110000010101010001000000111100011100111110110111110011110010100110111111100011111100100011100110100111001 $
0#
x"
b110101000001001111001100110011110111011011001111010111010000101001111000110111011110011011100101010010101001111111101010011101001010001000011100101001001111111100110110000010101101000100011000001111110000011110110011010101101011011111000001100110100011001 !
$end
#500
b1000010100010100010111110011000 @
b1000010100010100010111110011000 G
b0 H
b10101101010000101000110001000 F
b110101100001110010011100101011 C
b110101100001110010011100101011 S
b1010001000011100101001001111111 T
b11001110001000001011010001111110 B
b11001110001000001011010001111110 Q
b1101010000010011110011001100111 R
b111010011011111110011001100111 A
b111010011011111110011001100111 M
b1101010000010011110011001100111 N
b10111011011001111010111010000101 O
b111100011011101111001101110010 P
b11111100001011100100110001100 .
b11111100001011100100110001100 I
b1010001000011100101001001111111 J
b10011011000001010110100010001100 K
b11111100000111101100110101011 L
b0 >
b1011011111000001100110100011001 3
b11111100000111101100110101011 2
b10011011000001010110100010001100 1
b1010001000011100101001001111111 0
b10100101010011111111010100111010 /
b111100011011101111001101110010 -
b10111011011001111010111010000101 ,
b1101010000010011110011001100111 +
1#
0%
#1000
b1000100100001001101011100101 E
b1001001000000011111011110000 D
0#
#1500
b1110001001101110100010010010001 @
b1110001001101110100010010010001 G
b1 H
b11011101110010111101100110111011 F
b10111111101100001101110000001 C
b10111111101100001101110000001 S
b10101110011100000011010000101010 T
b1001001101000111110111110110101 B
b1001001101000111110111110110101 Q
b10001101100001101100111010101 R
b111011001000011110111011000101 A
b111011001000011110111011000101 M
b10001101100001101100111010101 N
b1101010000010011110011001100111 O
b10111011011001111010111010000101 P
b10001000001010101100010101110 .
b10001000001010101100010101110 I
b10101110011100000011010000101010 J
b1010001000011100101001001111111 K
b10011011000001010110100010001100 L
b1 >
b10001101100001101100111010101 +
b1101010000010011110011001100111 ,
b10111011011001111010111010000101 -
b111100011011101111001101110010 /
b10101110011100000011010000101010 0
b1010001000011100101001001111111 1
b10011011000001010110100010001100 2
b11111100000111101100110101011 3
1#
#2000
b10000100110001011101111001111010 E
b10010111100000100110110000100110 D
0#
#2500
b10110101110000001111101111001111 @
b10110101110000001111101111001111 G
b10 H
b11000110101110001100011011100 F
b1101000111110100111011100111100 C
b1101000111110100111011100111100 S
b11010011111100010101111110011000 T
b1110011001110000111000010011011 B
b1110011001110000111000010011011 Q
b11100010010000100101010100000 R
b11000000010001100101011100101 A
b11000000010001100101011100101 M
b11100010010000100101010100000 N
b10001101100001101100111010101 O
b1101010000010011110011001100111 P
b10000010011111100001010001101111 .
b10000010011111100001010001101111 I
b11010011111100010101111110011000 J
b10101110011100000011010000101010 K
b1010001000011100101001001111111 L
b10 >
b11100010010000100101010100000 +
b10001101100001101100111010101 ,
b1101010000010011110011001100111 -
b10111011011001111010111010000101 /
b11010011111100010101111110011000 0
b10101110011100000011010000101010 1
b1010001000011100101001001111111 2
b10011011000001010110100010001100 3
1#
#3000
b10001011010000010011101110000000 E
b1010101000101100000100011100010 D
0#
#3500
b11101001101101011101101110100101 @
b11101001101101011101101110100101 G
b11 H
b110001001010100001011101110101 F
b1001110011110000100101011100011 C
b1001110011110000100101011100011 S
b10000011111011011011101100111 T
b11000110000100110101100000100011 B
b11000110000100110101100000100011 Q
b11100000010101110100010001100010 R
b10000010100000100100011100000 A
b10000010100000100100011100000 M
b11100000010101110100010001100010 N
b11100010010000100101010100000 O
b10001101100001101100111010101 P
b10111110011100010001011100001000 .
b10111110011100010001011100001000 I
b10000011111011011011101100111 J
b11010011111100010101111110011000 K
b10101110011100000011010000101010 L
b11 >
b11100000010101110100010001100010 +
b11100010010000100101010100000 ,
b10001101100001101100111010101 -
b1101010000010011110011001100111 /
b10000011111011011011101100111 0
b11010011111100010101111110011000 1
b10101110011100000011010000101010 2
b1010001000011100101001001111111 3
1#
#4000
b11010110011000111010000100000011 E
b1111000110101111010011110000100 D
0#
#4500
b111001010101101100001001011011 @
b111001010101101100001001011011 G
b100 H
b11000011001010000110110000010 F
b1100010001100010010111111110111 C
b1100010001100010010111111110111 S
b11100010111000011000110111101011 T
b1111010110101101011011011000111 B
b1111010110101101011011011000111 Q
b1001111001110110100100010000111 R
b1001100010110110100100010100010 A
b1001100010110110100100010100010 M
b1001111001110110100100010000111 N
b11100000010101110100010001100010 O
b11100010010000100101010100000 P
b10001011100011101011101110011 .
b10001011100011101011101110011 I
b11100010111000011000110111101011 J
b10000011111011011011101100111 K
b11010011111100010101111110011000 L
b100 >
b1001111001110110100100010000111 +
b11100000010101110100010001100010 ,
b11100010010000100101010100000 -
b10001101100001101100111010101 /
b11100010111000011000110111101011 0
b10000011111011011011101100111 1
b11010011111100010101111110011000 2
b10101110011100000011010000101010 3
1#
#5000
b11000111001100011111111101101001 E
b1110011110011110000101101110001 D
0#
#5500
b1011001111100010001000111110001 @
b1011001111100010001000111110001 G
b101 H
b10101000100000011110001110011111 F
b1101001101111111001100101011 C
b1101001101111111001100101011 S
b10000101011111111110010101000110 T
b11011100001110101111001001010010 B
b11011100001110101111001001010010 Q
b111011000000010000101011011010 R
b1101011000100110100100011000010 A
b1101011000100110100100011000010 M
b111011000000010000101011011010 N
b1001111001110110100100010000111 O
b11100000010101110100010001100010 P
b10010000011000011001011101100011 .
b10010000011000011001011101100011 I
b10000101011111111110010101000110 J
b11100010111000011000110111101011 K
b10000011111011011011101100111 L
b101 >
b111011000000010000101011011010 +
b1001111001110110100100010000111 ,
b11100000010101110100010001100010 -
b11100010010000100101010100000 /
b10000101011111111110010101000110 0
b11100010111000011000110111101011 1
b10000011111011011011101100111 2
b11010011111100010101111110011000 3
1#
#6000
b1000111010011100011101100010100 E
b1110011111111011101111110110110 D
0#
#6500
b10010010001111111000001010100100 @
b10010010001111111000001010100100 G
b110 H
b1101111100111100101001101111111 F
b110011100001100011101100100100 C
b110011100001100011101100100100 S
b10010000010001100010101001010110 T
b1001000111011011111011000111111 B
b1001000111011011111011000111111 Q
b10111011010011000001101011001010 R
b111011000010010000101011001010 A
b111011000010010000101011001010 M
b10111011010011000001101011001010 N
b111011000000010000101011011010 O
b1001111001110110100100010000111 P
b11100010111001111010010111101111 .
b11100010111001111010010111101111 I
b10010000010001100010101001010110 J
b10000101011111111110010101000110 K
b11100010111000011000110111101011 L
b110 >
b10111011010011000001101011001010 +
b111011000000010000101011011010 ,
b1001111001110110100100010000111 -
b11100000010101110100010001100010 /
b10010000010001100010101001010110 0
b10000101011111111110010101000110 1
b11100010111000011000110111101011 2
b10000011111011011011101100111 3
1#
#7000
b10000011111101110000000100001001 E
b101000110010010110111010011101 D
0#
#7500
b10101011000111000101111011010101 @
b10101011000111000101111011010101 G
b111 H
b11111100100011100110100111001 F
b110011100111001101100101011001 C
b110011100111001101100101011001 S
b1001001000001011001011111111 T
b11010111101110111110011101011001 B
b11010111101110111110011101011001 Q
b10101100110000000110111110100110 R
b10111011010000000000101011001010 A
b10111011010000000000101011001010 M
b10101100110000000110111110100110 N
b10111011010011000001101011001010 O
b111011000000010000101011011010 P
b10000100010111110110011101010110 .
b10000100010111110110011101010110 I
b1001001000001011001011111111 J
b10010000010001100010101001010110 K
b10000101011111111110010101000110 L
b111 >
b10101100110000000110111110100110 +
b10111011010011000001101011001010 ,
b111011000000010000101011011010 -
b1001111001110110100100010000111 /
b1001001000001011001011111111 0
b10010000010001100010101001010110 1
b10000101011111111110010101000110 2
b11100010111000011000110111101011 3
1#
#8000
b10010010111110111111001000100011 E
b1100101100010111111101010101000 D
0#
#8500
b11011000000001111010101010011000 @
b11011000000001111010101010011000 G
b1000 H
b10000000000000000000000000000000 F
b10111000100001000001001000111110 C
b10111000100001000001001000111110 S
b10110100110001110100001100101111 T
b10000111110011010001000011101111 B
b10000111110011010001000011101111 Q
b11111000100001111110110011001011 R
b10111000110001000110111011001010 A
b10111000110001000110111011001010 M
b11111000100001111110110011001011 N
b10101100110000000110111110100110 O
b10111011010011000001101011001010 P
b10101001111111 .
b10101001111111 I
b10110100110001110100001100101111 J
b1001001000001011001011111111 K
b10010000010001100010101001010110 L
b1000 >
b11111000100001111110110011001011 +
b10101100110000000110111110100110 ,
b10111011010011000001101011001010 -
b111011000000010000101011011010 /
b10110100110001110100001100101111 0
b1001001000001011001011111111 1
b10010000010001100010101001010110 2
b10000101011111111110010101000110 3
1#
#9000
b1000000100100010111111110111001 E
b10010110000010111100110010011011 D
0#
#9500
b10010100000110101101100000001 @
b10010100000110101101100000001 G
b1001 H
b0 F
b10111111100101011010100000101111 C
b10111111100101011010100000101111 S
b11010001000011001101011101110101 T
b100010001100001011010010100101 B
b100010001100001011010010100101 Q
b11010110100111010100110001010100 R
b11111100100001010110110011000110 A
b11111100100001010110110011000110 M
b11010110100111010100110001010100 N
b11111000100001111110110011001011 O
b10101100110000000110111110100110 P
b10011000001001000110001110101111 .
b10011000001001000110001110101111 I
b11010001000011001101011101110101 J
b10110100110001110100001100101111 K
b1001001000001011001011111111 L
b1001 >
b11010110100111010100110001010100 +
b11111000100001111110110011001011 ,
b10101100110000000110111110100110 -
b10111011010011000001101011001010 /
b11010001000011001101011101110101 0
b10110100110001110100001100101111 1
b1001001000001011001011111111 2
b10010000010001100010101001010110 3
1#
#10000
b11110101101100010000101101011 E
b11111010100000111001000100110101 D
0#
#10500
b100100001100011000010110111110 @
b100100001100011000010110111110 G
b1010 H
b1100110111101000111100010000000 C
b1100110111101000111100010000000 S
b10110101110011111010101111111111 T
b1110101100001000010010100000001 B
b1110101100001000010010100000001 Q
b11001001110011011001010100000 R
b11011000100111011110110011000000 A
b11011000100111011110110011000000 M
b11001001110011011001010100000 N
b11010110100111010100110001010100 O
b11111000100001111110110011001011 P
b10010001000011001100001101110101 .
b10010001000011001100001101110101 I
b10110101110011111010101111111111 J
b11010001000011001101011101110101 K
b10110100110001110100001100101111 L
b1010 >
b11001001110011011001010100000 +
b11010110100111010100110001010100 ,
b11111000100001111110110011001011 -
b10101100110000000110111110100110 /
b10110101110011111010101111111111 0
b11010001000011001101011101110101 1
b10110100110001110100001100101111 2
b1001001000001011001011111111 3
1#
#11000
b1001110001000100001000111000001 E
b100101010100110111010010110010 D
0#
#11500
b1010101000011000111110111000011 @
b1010101000011000111110111000011 G
b1011 H
b11100001101000000010000110000100 C
b11100001101000000010000110000100 S
b11010010000100111110010001011000 T
b111001010111110011011111111101 B
b111001010111110011011111111101 Q
b1110011011101011000011001110011 R
b1010011001111011000011001110000 A
b1010011001111011000011001110000 M
b1110011011101011000011001110011 N
b11001001110011011001010100000 O
b11010110100111010100110001010100 P
b10010001000011111011001101111101 .
b10010001000011111011001101111101 I
b11010010000100111110010001011000 J
b10110101110011111010101111111111 K
b11010001000011001101011101110101 L
b1011 >
b1110011011101011000011001110011 +
b11001001110011011001010100000 ,
b11010110100111010100110001010100 -
b11111000100001111110110011001011 /
b11010010000100111110010001011000 0
b10110101110011111010101111111111 1
b11010001000011001101011101110101 2
b10110100110001110100001100101111 3
1#
#12000
b10001100100111001011111001101101 E
b1111100100000111001010111110011 D
0#
#12500
b1110010101111100101110101110100 @
b1110010101111100101110101110100 G
b1100 H
b101011110110111101000001000000 C
b101011110110111101000001000000 S
b1110101000010111000001010111110 T
b100000000110011101110000111110 B
b100000000110011101110000111110 Q
b1001001000000101010001100000 R
b11001001100011001011001100000 A
b11001001100011001011001100000 M
b1001001000000101010001100000 N
b1110011011101011000011001110011 O
b11001001110011011001010100000 P
b11010000110001111010100101011001 .
b11010000110001111010100101011001 I
b1110101000010111000001010111110 J
b11010010000100111110010001011000 K
b10110101110011111010101111111111 L
b1100 >
b1001001000000101010001100000 +
b1110011011101011000011001110011 ,
b11001001110011011001010100000 -
b11010110100111010100110001010100 /
b1110101000010111000001010111110 0
b11010010000100111110010001011000 1
b10110101110011111010101111111111 2
b11010001000011001101011101110101 3
1#
#13000
b111001010010110111001010011110 E
b1000000011011101010111010000010 D
0#
#13500
b10000000110111101011000111111110 @
b10000000110111101011000111111110 G
b1101 H
b10000111011000111010010110011111 C
b10000111011000111010010110011111 S
b10111000010111111101011010110 T
b11111111111010011100010001111111 B
b11111111111010011100010001111111 Q
b1111001101110100010000100100000 R
b1111001001100000000010001100000 A
b1111001001100000000010001100000 M
b1111001101110100010000100100000 N
b1001001000000101010001100000 O
b1110011011101011000011001110011 P
b11010101000110111000011010011110 .
b11010101000110111000011010011110 I
b10111000010111111101011010110 J
b1110101000010111000001010111110 K
b11010010000100111110010001011000 L
b1101 >
b1111001101110100010000100100000 +
b1001001000000101010001100000 ,
b1110011011101011000011001110011 -
b11001001110011011001010100000 /
b10111000010111111101011010110 0
b1110101000010111000001010111110 1
b11010010000100111110010001011000 2
b10110101110011111010101111111111 3
1#
#14000
b1111001000110011100100011011111 E
b10010011001011011000101000111010 D
0#
#14500
b10011011110111000000011010100111 @
b10011011110111000000011010100111 G
b1110 H
b11000010011110100111110101000010 C
b11000010011110100111110101000010 S
b10101100011001110011110011011010 T
b11000110100101011101001011001101 B
b11000110100101011101001011001101 Q
b1100010001110101001100011001 R
b1001001000100101000100100000 A
b1001001000100101000100100000 M
b1100010001110101001100011001 N
b1111001101110100010000100100000 O
b1001001000000101010001100000 P
b1010101000010111011101011110110 .
b1010101000010111011101011110110 I
b10101100011001110011110011011010 J
b10111000010111111101011010110 K
b1110101000010111000001010111110 L
b1110 >
b1100010001110101001100011001 +
b1111001101110100010000100100000 ,
b1001001000000101010001100000 -
b1110011011101011000011001110011 /
b10101100011001110011110011011010 0
b10111000010111111101011010110 1
b1110101000010111000001010111110 2
b11010010000100111110010001011000 3
1#
#15000
b11001111101110000010001111101101 E
b10000101011101100010001100110111 D
0#
#15500
b11000001100110111111000101110100 @
b11000001100110111111000101110100 G
b1111 H
b100000000 F
b11101011011010000110011010101111 C
b11101011011010000110011010101111 S
b11111000111010111010100110101010 T
b10010101011101011010100111101111 B
b10010101011101011010100111101111 Q
b1010101001011100100011100100100 R
b1011101001011100100001100100000 A
b1011101001011100100001100100000 M
b1010101001011100100011100100100 N
b1100010001110101001100011001 O
b1111001101110100010000100100000 P
b10101111011000110111101011011110 .
b10101111011000110111101011011110 I
b11111000111010111010100110101010 J
b10101100011001110011110011011010 K
b10111000010111111101011010110 L
b1111 >
b1010101001011100100011100100100 +
b1100010001110101001100011001 ,
b1111001101110100010000100100000 -
b1001001000000101010001100000 /
b11111000111010111010100110101010 0
b10101100011001110011110011011010 1
b10111000010111111101011010110 2
b1110101000010111000001010111110 3
1#
#16000
b11110010101000111110110100001111 E
b11010001011100110101011010111111 D
0#
#16500
b11100100100110110110100111000001 @
b11100100100110110110100111000001 G
b10000 H
b10110000000101000110110101111110 F
b1010101010001001001001100110100 C
b1010101010001001001001100110100 S
b11011010100100111010101100011111 T
b11110010011111001100101101011001 B
b11110010011111001100101101011001 Q
b11000100000101110100001111001110 R
b1000100000001110100001100001100 A
b1000100000001110100001100001100 M
b11000100000101110100001111001110 N
b1010101001011100100011100100100 O
b1100010001110101001100011001 P
b11111100111001111011110111001010 .
b11111100111001111011110111001010 I
b11011010100100111010101100011111 J
b11111000111010111010100110101010 K
b10101100011001110011110011011010 L
b10000 >
b11000100000101110100001111001110 +
b1010101001011100100011100100100 ,
b1100010001110101001100011001 -
b1111001101110100010000100100000 /
b11011010100100111010101100011111 0
b11111000111010111010100110101010 1
b10101100011001110011110011011010 2
b10111000010111111101011010110 3
1#
#17000
b110110100001000000111001100101 E
b11111101111010000010001100010011 D
0#
#17500
b11101111101111100100011110000110 @
b11101111101111100100011110000110 G
b10001 H
b1011011100010000010010011011010 F
b10011010100100100110010011100011 C
b10011010100100100110010011100011 S
b1110111101000100100010000110011 T
b110110000111110100111111101110 B
b110110000111110100111111101110 Q
b110100011011000011000101111000 R
b1010100001011100100001101101100 A
b1010100001011100100001101101100 M
b110100011011000011000101111000 N
b11000100000101110100001111001110 O
b1010101001011100100011100100100 P
b11011010110010111010100110011011 .
b11011010110010111010100110011011 I
b1110111101000100100010000110011 J
b11011010100100111010101100011111 K
b11111000111010111010100110101010 L
b10001 >
b110100011011000011000101111000 +
b11000100000101110100001111001110 ,
b1010101001011100100011100100100 -
b1100010001110101001100011001 /
b1110111101000100100010000110011 0
b11011010100100111010101100011111 1
b11111000111010111010100110101010 2
b10101100011001110011110011011010 3
1#
#18000
b10001010010011011001001101011010 E
b1101101000010111011011110111000 D
0#
#18500
b1111110000011001110111000110 @
b1111110000011001110111000110 G
b10010 H
b111101101011011111111001111001 F
b10110110010011110000111011110110 C
b10110110010011110000111011110110 S
b1111001010100110000101011010001 T
b10000000011011011010001111010011 B
b10000000011011011010001111010011 Q
b11110111010110010100101100010010 R
b11110100010111010100001101011010 A
b11110100010111010100001101011010 M
b11110111010110010100101100010010 N
b110100011011000011000101111000 O
b11000100000101110100001111001110 P
b11110011100000101010000100011111 .
b11110011100000101010000100011111 I
b1111001010100110000101011010001 J
b1110111101000100100010000110011 K
b11011010100100111010101100011111 L
b10010 >
b11110111010110010100101100010010 +
b110100011011000011000101111000 ,
b11000100000101110100001111001110 -
b1010101001011100100011100100100 /
b1111001010100110000101011010001 0
b1110111101000100100010000110011 1
b11011010100100111010101100011111 2
b11111000111010111010100110101010 3
1#
#19000
b1110100110010101110011100101101 E
b11110000001011001111010111111110 D
0#
#19500
b100100000011001010000111001100 @
b100100000011001010000111001100 G
b10011 H
b10001100011001111000100111100011 F
b10000000110000110101011010110001 C
b10000000110000110101011010110001 S
b1000101010110110011110100100010 T
b11101111000100100111110101100111 B
b11101111000100100111110101100111 Q
b1100100111101111101110100101011 R
b1110100011111010101100100111010 A
b1110100011111010101100100111010 M
b1100100111101111101110100101011 N
b11110111010110010100101100010010 O
b110100011011000011000101111000 P
b1110011111100110100100000010001 .
b1110011111100110100100000010001 I
b1000101010110110011110100100010 J
b1111001010100110000101011010001 K
b1110111101000100100010000110011 L
b10011 >
b1100100111101111101110100101011 +
b11110111010110010100101100010010 ,
b110100011011000011000101111000 -
b11000100000101110100001111001110 /
b1000101010110110011110100100010 0
b1111001010100110000101011010001 1
b1110111101000100100010000110011 2
b11011010100100111010101100011111 3
1#
#20000
b1100011100011111101011010100001 E
b1111111101111100111010110010000 D
0#
#20500
b101101111010010010110001101111 @
b101101111010010010110001101111 G
b10100 H
b10101100000010001011010100110010 F
b10111000000110111000001101110011 C
b10111000000110111000001101110011 S
b1000011110101011011100101011110 T
b100000011011000100111011110011 B
b100000011011000100111011110011 Q
b11100011010011100100110000110001 R
b11100111010111110100110100110011 A
b11100111010111110100110100110011 M
b11100011010011100100110000110001 N
b1100100111101111101110100101011 O
b11110111010110010100101100010010 P
b1111001010100110011101110000011 .
b1111001010100110011101110000011 I
b1000011110101011011100101011110 J
b1000101010110110011110100100010 K
b1111001010100110000101011010001 L
b10100 >
b11100011010011100100110000110001 +
b1100100111101111101110100101011 ,
b11110111010110010100101100010010 -
b110100011011000011000101111000 /
b1000011110101011011100101011110 0
b1000101010110110011110100100010 1
b1111001010100110000101011010001 2
b1110111101000100100010000110011 3
1#
#21000
b111110010111001110000100110 E
b10000011000000101110010011001010 D
0#
#21500
b1001010011101001000010010101010 @
b1001010011101001000010010101010 G
b10101 H
b1000110011000111011111100101010 F
b1110101000000000111000011100000 C
b1110101000000000111000011100000 S
b10110111011011110001011001000010 T
b11111001101000011010001100011 B
b11111001101000011010001100011 Q
b10001010110011101000000011110000 R
b11100010110011101100110000110001 A
b11100010110011101100110000110001 M
b10001010110011101000000011110000 N
b11100011010011100100110000110001 O
b1100100111101111101110100101011 P
b1000011010101010011100101100010 .
b1000011010101010011100101100010 I
b10110111011011110001011001000010 J
b1000011110101011011100101011110 K
b1000101010110110011110100100010 L
b10101 >
b10001010110011101000000011110000 +
b11100011010011100100110000110001 ,
b1100100111101111101110100101011 -
b11110111010110010100101100010010 /
b10110111011011110001011001000010 0
b1000011110101011011100101011110 1
b1000101010110110011110100100010 2
b1111001010100110000101011010001 3
1#
#22000
b10000000110000000010010100 E
b11000010100000001111100011100111 D
0#
#22500
b1011100101100001010100111011100 @
b1011100101100001010100111011100 G
b10110 H
b10111110001101011011010000000000 F
b1110100111100011010111010011011 C
b1110100111100011010111010011011 S
b10111001110110100100001111111001 T
b110101000110110011010101010011 B
b110101000110110011010101010011 Q
b11000100100000111111100101111011 R
b11000010110011101100100001110001 A
b11000010110011101100100001110001 M
b11000100100000111111100101111011 N
b10001010110011101000000011110000 O
b11100011010011100100110000110001 P
b11110011010011111011101001000110 .
b11110011010011111011101001000110 I
b10111001110110100100001111111001 J
b10110111011011110001011001000010 K
b1000011110101011011100101011110 L
b10110 >
b11000100100000111111100101111011 +
b10001010110011101000000011110000 ,
b11100011010011100100110000110001 -
b1100100111101111101110100101011 /
b10111001110110100100001111111001 0
b10110111011011110001011001000010 1
b1000011110101011011100101011110 2
b1000101010110110011110100100010 3
1#
#23000
b11110111111010011111110111000100 E
b11001000100000110000001111011111 D
0#
#23500
b1110110111110011000100011011010 @
b1110110111110011000100011011010 G
b10111 H
b10001001000010000100110111001001 F
b10110100100000001100000111001110 C
b10110100100000001100000111001110 S
b101101011110101110000100001010 T
b1001001000000111100110000000001 B
b1001001000000111100110000000001 Q
b11000000011011010000000110100011 R
b11000000110011111000000111110011 A
b11000000110011111000000111110011 M
b11000000011011010000000110100011 N
b11000100100000111111100101111011 O
b10001010110011101000000011110000 P
b10111011010111110101011101001000 .
b10111011010111110101011101001000 I
b101101011110101110000100001010 J
b10111001110110100100001111111001 K
b10110111011011110001011001000010 L
b10111 >
b11000000011011010000000110100011 +
b11000100100000111111100101111011 ,
b10001010110011101000000011110000 -
b11100011010011100100110000110001 /
b101101011110101110000100001010 0
b10111001110110100100001111111001 1
b10110111011011110001011001000010 2
b1000011110101011011100101011110 3
1#
#24000
b1001110100110100110111110100 E
b10110011101101111010100100010111 D
0#
#24500
b10011000001111100101000101010010 @
b10011000001111100101000101010010 G
b11000 H
b1001000001101111110101010001011 F
b1001101101000101001100100000 C
b1001101101000101001100100000 S
b10010111000001011111010101001000 T
b1111100111000110111111101100011 B
b1111100111000110111111101100011 Q
b10111101100010101111011100001011 R
b11000100100010111111000100101011 A
b11000100100010111111000100101011 M
b10111101100010101111011100001011 N
b11000000011011010000000110100011 O
b11000100100000111111100101111011 P
b101101110110101110001110111001 .
b101101110110101110001110111001 I
b10010111000001011111010101001000 J
b101101011110101110000100001010 K
b10111001110110100100001111111001 L
b11000 >
b10111101100010101111011100001011 +
b11000000011011010000000110100011 ,
b11000100100000111111100101111011 -
b10001010110011101000000011110000 /
b10010111000001011111010101001000 0
b101101011110101110000100001010 1
b10111001110110100100001111111001 2
b10110111011011110001011001000010 3
1#
#25000
b1000001011011110111000010001110 E
b11001111011101001000100011111000 D
0#
